{
    "parent": "block/outer_stairs",
    "textures": {
        "bottom": "block/mossy_cobblestone",
        "top": "block/mossy_cobblestone",
        "side": "blocks_extra/slabs_stairs/mossy_cobblestone_slab_stair"
    }
}
