{
    "parent": "block/slab",
    "textures": {
        "bottom": "block/sandstone_bottom",
        "top": "block/sandstone_top",
        "side": "blocks_extra/slabs_stairs/sandstone_slab_stair"
    }
}
